NYC Yellow Cab Demand Analysis
…
Results: Traffic Flow Analysis

Matching the Clusters

data_with_clusters <- data %>%
  left_join(pickup_data %>% select(trip_id, pickup_cluster = cluster), by = "trip_id") %>%
  left_join(dropoff_data %>% select(trip_id, dropoff_cluster = cluster), by = "trip_id")

traffic_flow <- data_with_clusters %>%
  group_by(pickup_cluster, dropoff_cluster) %>%
  summarize(flow_count = n(), .groups = "drop")

arrange(traffic_flow, desc(flow_count))

## # A tibble: 21 × 3
##    pickup_cluster dropoff_cluster flow_count
##             <int>           <int>      <int>
##  1              4               3     199527
##  2              3               3     146144
##  3              3               5     142982
##  4              4               5      88819
##  5              3               4      75719
##  6              5               3      66672
##  7              4               4      53443
##  8              2               2      30581
##  9              5               5      17219
## 10              5               4      11063
## # ℹ 11 more rows
…
